// Jest Snapshot v1, https://goo.gl/fbAQLP

exports[`Layout component should render a Navbar Container and hr and message 1`] = `
Array [
  <nav
    className="navbar navbar-expand navbar-dark bg-dark"
  >
    <a
      className="navbar-brand"
      href="/"
    >
      Emissão de Pedidos
    </a>
    <div
      className="mr-auto navbar-nav"
      onKeyDown={[Function]}
    >
      <a
        className="nav-link"
        data-rb-event-key="/"
        href="/"
        onClick={[Function]}
        onKeyDown={[Function]}
      >
        Realizar Pedido
      </a>
      <a
        className="nav-link"
        data-rb-event-key="/listar/"
        href="/listar/"
        onClick={[Function]}
        onKeyDown={[Function]}
      >
        Listar Pedidos
      </a>
    </div>
  </nav>,
  <div
    className="container"
  >
    <hr />
    Hello!
  </div>,
]
`;
